"D:/UnrealProjects/TenModul/Content/TopDownBP/Blueprints/GameMapStart_BuiltData.uasset" 0
"D:/UnrealProjects/TenModul/Content/TopDownBP/Blueprints/GameMapStart_BuiltData.uexp" 1
"D:/UnrealProjects/TenModul/Content/TopDownBP/Blueprints/GameMapStart_BuiltData.ubulk" 2
"D:/UnrealProjects/TenModul/Content/Geometry/Meshes/CubeMaterial.uasset" 3
"D:/UnrealProjects/TenModul/Content/Geometry/Meshes/CubeMaterial.uexp" 4
"D:/UnrealProjects/TenModul/Content/Geometry/Meshes/TemplateFloor.uasset" 5
"D:/UnrealProjects/TenModul/Content/Geometry/Meshes/TemplateFloor.uexp" 6
"../../../Engine/Content/EngineMaterials/T_Default_Material_Grid_N.uasset" 7
"../../../Engine/Content/EngineMaterials/T_Default_Material_Grid_N.uexp" 8
"../../../Engine/Content/EngineMaterials/T_Default_Material_Grid_N.ubulk" 9
"../../../Engine/Content/EngineMaterials/T_Default_Material_Grid_M.uasset" 10
"../../../Engine/Content/EngineMaterials/T_Default_Material_Grid_M.uexp" 11
"../../../Engine/Content/EngineMaterials/T_Default_Material_Grid_M.ubulk" 12
"../../../Engine/Content/Functions/Engine_MaterialFunctions01/Opacity/CameraDepthFade.uasset" 13
"../../../Engine/Content/Functions/Engine_MaterialFunctions01/Opacity/CameraDepthFade.uexp" 14
"../../../Engine/Content/EngineMaterials/WorldGridMaterial.uasset" 15
"../../../Engine/Content/EngineMaterials/WorldGridMaterial.uexp" 16
"D:/UnrealProjects/TenModul/Content/Puzzle/Meshes/PuzzleCube.uasset" 17
"D:/UnrealProjects/TenModul/Content/Puzzle/Meshes/PuzzleCube.uexp" 18
"D:/UnrealProjects/TenModul/Content/TopDownBP/Blueprints/LoseWidget.uasset" 19
"D:/UnrealProjects/TenModul/Content/TopDownBP/Blueprints/LoseWidget.uexp" 20
"../../../Engine/Content/BasicShapes/Cube.uasset" 21
"../../../Engine/Content/BasicShapes/Cube.uexp" 22
"D:/UnrealProjects/TenModul/Content/StarterContent/Textures/T_Chair_M.uasset" 23
"D:/UnrealProjects/TenModul/Content/StarterContent/Textures/T_Chair_M.uexp" 24
"D:/UnrealProjects/TenModul/Content/StarterContent/Textures/T_Chair_M.ubulk" 25
"D:/UnrealProjects/TenModul/Content/TopDownBP/Blueprints/RedMaterial.uasset" 26
"D:/UnrealProjects/TenModul/Content/TopDownBP/Blueprints/RedMaterial.uexp" 27
"D:/UnrealProjects/TenModul/Content/TopDownBP/Blueprints/BP_NegativeBonusBlock.uasset" 28
"D:/UnrealProjects/TenModul/Content/TopDownBP/Blueprints/BP_NegativeBonusBlock.uexp" 29
"../../../Engine/Content/BasicShapes/BasicShapeMaterial.uasset" 30
"../../../Engine/Content/BasicShapes/BasicShapeMaterial.uexp" 31
"../../../Engine/Content/EngineMaterials/DefaultMaterial.uasset" 32
"../../../Engine/Content/EngineMaterials/DefaultMaterial.uexp" 33
"../../../Engine/Content/BasicShapes/Sphere.uasset" 34
"../../../Engine/Content/BasicShapes/Sphere.uexp" 35
"D:/UnrealProjects/TenModul/Content/TopDownBP/Blueprints/BP_Ball1.uasset" 36
"D:/UnrealProjects/TenModul/Content/TopDownBP/Blueprints/BP_Ball1.uexp" 37
"D:/UnrealProjects/TenModul/Content/TopDownBP/Blueprints/BP_Caretka.uasset" 38
"D:/UnrealProjects/TenModul/Content/TopDownBP/Blueprints/BP_Caretka.uexp" 39
"D:/UnrealProjects/TenModul/Content/StarterContent/Materials/M_AssetPlatform.uasset" 40
"D:/UnrealProjects/TenModul/Content/StarterContent/Materials/M_AssetPlatform.uexp" 41
"D:/UnrealProjects/TenModul/Content/Geometry/Meshes/1M_Cube_Chamfer.uasset" 42
"D:/UnrealProjects/TenModul/Content/Geometry/Meshes/1M_Cube_Chamfer.uexp" 43
"D:/UnrealProjects/TenModul/Content/TopDownBP/Blueprints/BP_BonusBlock.uasset" 44
"D:/UnrealProjects/TenModul/Content/TopDownBP/Blueprints/BP_BonusBlock.uexp" 45
"D:/UnrealProjects/TenModul/Content/TopDownBP/Blueprints/BP_Ball_Super.uasset" 46
"D:/UnrealProjects/TenModul/Content/TopDownBP/Blueprints/BP_Ball_Super.uexp" 47
"D:/UnrealProjects/TenModul/Content/StarterContent/Textures/T_Chair_N.uasset" 48
"D:/UnrealProjects/TenModul/Content/StarterContent/Textures/T_Chair_N.uexp" 49
"D:/UnrealProjects/TenModul/Content/StarterContent/Textures/T_Chair_N.ubulk" 50
"D:/UnrealProjects/TenModul/Content/StarterContent/Props/Materials/M_Chair.uasset" 51
"D:/UnrealProjects/TenModul/Content/StarterContent/Props/Materials/M_Chair.uexp" 52
"D:/UnrealProjects/TenModul/Content/TopDownBP/Blueprints/BP_Spawn_Ball.uasset" 53
"D:/UnrealProjects/TenModul/Content/TopDownBP/Blueprints/BP_Spawn_Ball.uexp" 54
"D:/UnrealProjects/TenModul/Content/TopDownBP/Blueprints/ControllerWidget.uasset" 55
"D:/UnrealProjects/TenModul/Content/TopDownBP/Blueprints/ControllerWidget.uexp" 56
"../../../Engine/Content/ArtTools/RenderToTexture/Meshes/S_1_Unit_Plane.uasset" 57
"../../../Engine/Content/ArtTools/RenderToTexture/Meshes/S_1_Unit_Plane.uexp" 58
"../../../Engine/Content/BasicShapes/Cone.uasset" 59
"../../../Engine/Content/BasicShapes/Cone.uexp" 60
"../../../Engine/Content/EditorLandscapeResources/DataLayer.uasset" 61
"../../../Engine/Content/EditorLandscapeResources/DataLayer.uexp" 62
"../../../Engine/Content/EditorLandscapeResources/DefaultAlphaTexture.uasset" 63
"../../../Engine/Content/EditorLandscapeResources/DefaultAlphaTexture.uexp" 64
"../../../Engine/Content/EditorMaterials/MAT_Groups_Toggle.uasset" 65
"../../../Engine/Content/EditorMaterials/MAT_Groups_Toggle.uexp" 66
"../../../Engine/Content/EditorMaterials/MAT_Groups_Visibility.uasset" 67
"../../../Engine/Content/EditorMaterials/MAT_Groups_Visibility.uexp" 68
"../../../Engine/Content/EditorMaterials/PreviewShadowIndicator.uasset" 69
"../../../Engine/Content/EditorMaterials/PreviewShadowIndicator.uexp" 70
"../../../Engine/Content/EditorMaterials/PreviewShadowIndicator.ubulk" 71
"../../../Engine/Content/EditorMaterials/PreviewShadowIndicatorMaterial.uasset" 72
"../../../Engine/Content/EditorMaterials/PreviewShadowIndicatorMaterial.uexp" 73
"../../../Engine/Content/EditorMaterials/MatineeGroups/MAT_ColorTrack.uasset" 74
"../../../Engine/Content/EditorMaterials/MatineeGroups/MAT_ColorTrack.uexp" 75
"../../../Engine/Content/EditorMaterials/MatineeGroups/MAT_Groups_Anim.uasset" 76
"../../../Engine/Content/EditorMaterials/MatineeGroups/MAT_Groups_Anim.uexp" 77
"../../../Engine/Content/EditorMaterials/MatineeGroups/MAT_Groups_AudioMaster.uasset" 78
"../../../Engine/Content/EditorMaterials/MatineeGroups/MAT_Groups_AudioMaster.uexp" 79
"../../../Engine/Content/EditorMaterials/MatineeGroups/MAT_Groups_Director.uasset" 80
"../../../Engine/Content/EditorMaterials/MatineeGroups/MAT_Groups_Director.uexp" 81
"../../../Engine/Content/EditorMaterials/MatineeGroups/MAT_Groups_Event.uasset" 82
"../../../Engine/Content/EditorMaterials/MatineeGroups/MAT_Groups_Event.uexp" 83
"../../../Engine/Content/EditorMaterials/MatineeGroups/MAT_Groups_Fade.uasset" 84
"../../../Engine/Content/EditorMaterials/MatineeGroups/MAT_Groups_Fade.uexp" 85
"../../../Engine/Content/EditorMaterials/MatineeGroups/MAT_Groups_Float.uasset" 86
"../../../Engine/Content/EditorMaterials/MatineeGroups/MAT_Groups_Float.uexp" 87
"../../../Engine/Content/EditorMaterials/MatineeGroups/MAT_Groups_Move.uasset" 88
"../../../Engine/Content/EditorMaterials/MatineeGroups/MAT_Groups_Move.uexp" 89
"../../../Engine/Content/EditorMaterials/MatineeGroups/MAT_Groups_Slomo.uasset" 90
"../../../Engine/Content/EditorMaterials/MatineeGroups/MAT_Groups_Slomo.uexp" 91
"../../../Engine/Content/EditorMaterials/MatineeGroups/MAT_Groups_Sound.uasset" 92
"../../../Engine/Content/EditorMaterials/MatineeGroups/MAT_Groups_Sound.uexp" 93
"../../../Engine/Content/EditorMaterials/MatineeGroups/MAT_Groups_Vector.uasset" 94
"../../../Engine/Content/EditorMaterials/MatineeGroups/MAT_Groups_Vector.uexp" 95
"../../../Engine/Content/EditorMaterials/ParticleSystems/PSysThumbnail_NoImage.uasset" 96
"../../../Engine/Content/EditorMaterials/ParticleSystems/PSysThumbnail_NoImage.uexp" 97
"../../../Engine/Content/EditorMaterials/ParticleSystems/PSysThumbnail_NoImage.ubulk" 98
"../../../Engine/Content/EditorMaterials/ParticleSystems/PSysThumbnail_OOD.uasset" 99
"../../../Engine/Content/EditorMaterials/ParticleSystems/PSysThumbnail_OOD.uexp" 100
"../../../Engine/Content/EditorMaterials/ParticleSystems/PSysThumbnail_OOD.ubulk" 101
"../../../Engine/Content/EditorMaterials/Camera/CineMat.uasset" 102
"../../../Engine/Content/EditorMaterials/Camera/CineMat.uexp" 103
"../../../Engine/Content/EditorMaterials/Camera/MI_CineMat_Rig.uasset" 104
"../../../Engine/Content/EditorMaterials/Camera/MI_CineMat_Rig.uexp" 105
"../../../Engine/Content/EditorMeshes/Camera/SM_CraneRig_Arm.uasset" 106
"../../../Engine/Content/EditorMeshes/Camera/SM_CraneRig_Arm.uexp" 107
"../../../Engine/Content/EditorMeshes/Camera/SM_CraneRig_Base.uasset" 108
"../../../Engine/Content/EditorMeshes/Camera/SM_CraneRig_Base.uexp" 109
"../../../Engine/Content/EditorMeshes/Camera/SM_CraneRig_Body.uasset" 110
"../../../Engine/Content/EditorMeshes/Camera/SM_CraneRig_Body.uexp" 111
"../../../Engine/Content/EditorMeshes/Camera/SM_CraneRig_Mount.uasset" 112
"../../../Engine/Content/EditorMeshes/Camera/SM_CraneRig_Mount.uexp" 113
"../../../Engine/Content/EditorMeshes/Camera/SM_RailRig_Mount.uasset" 114
"../../../Engine/Content/EditorMeshes/Camera/SM_RailRig_Mount.uexp" 115
"../../../Engine/Content/EditorMeshes/Camera/SM_RailRig_Track.uasset" 116
"../../../Engine/Content/EditorMeshes/Camera/SM_RailRig_Track.uexp" 117
"../../../Engine/Content/EditorResources/BSPVertex.uasset" 118
"../../../Engine/Content/EditorResources/BSPVertex.uexp" 119
"../../../Engine/Content/EditorResources/EmptyActor.uasset" 120
"../../../Engine/Content/EditorResources/EmptyActor.uexp" 121
"../../../Engine/Content/EditorResources/S_Actor.uasset" 122
"../../../Engine/Content/EditorResources/S_Actor.uexp" 123
"../../../Engine/Content/EditorResources/S_Actor.ubulk" 124
"../../../Engine/Content/EditorResources/S_Note.uasset" 125
"../../../Engine/Content/EditorResources/S_Note.uexp" 126
"../../../Engine/Content/EditorResources/S_Note.ubulk" 127
"../../../Engine/Content/EditorResources/S_Solver.uasset" 128
"../../../Engine/Content/EditorResources/S_Solver.uexp" 129
"../../../Engine/Content/EditorResources/S_Solver.ubulk" 130
"../../../Engine/Content/EditorResources/S_Terrain.uasset" 131
"../../../Engine/Content/EditorResources/S_Terrain.uexp" 132
"../../../Engine/Content/EditorResources/S_Terrain.ubulk" 133
"../../../Engine/Content/EditorResources/S_Trigger.uasset" 134
"../../../Engine/Content/EditorResources/S_Trigger.uexp" 135
"../../../Engine/Content/EditorResources/S_Trigger.ubulk" 136
"../../../Engine/Content/EditorResources/AudioIcons/S_AudioComponent_AutoActivate.uasset" 137
"../../../Engine/Content/EditorResources/AudioIcons/S_AudioComponent_AutoActivate.uexp" 138
"../../../Engine/Content/EditorResources/AudioIcons/S_AudioComponent_AutoActivate.ubulk" 139
"../../../Engine/Content/EditorResources/LightIcons/S_LightError.uasset" 140
"../../../Engine/Content/EditorResources/LightIcons/S_LightError.uexp" 141
"../../../Engine/Content/EditorResources/SequenceRecorder/Countdown.uasset" 142
"../../../Engine/Content/EditorResources/SequenceRecorder/Countdown.uexp" 143
"../../../Engine/Content/EditorResources/SequenceRecorder/RecordingIndicator.uasset" 144
"../../../Engine/Content/EditorResources/SequenceRecorder/RecordingIndicator.uexp" 145
"../../../Engine/Content/EngineDamageTypes/DmgTypeBP_Environmental.uasset" 146
"../../../Engine/Content/EngineDamageTypes/DmgTypeBP_Environmental.uexp" 147
"../../../Engine/Content/EngineDebugMaterials/DebugEditorMaterial.uasset" 148
"../../../Engine/Content/EngineDebugMaterials/DebugEditorMaterial.uexp" 149
"../../../Engine/Content/EngineDebugMaterials/DebugMeshMaterial.uasset" 150
"../../../Engine/Content/EngineDebugMaterials/DebugMeshMaterial.uexp" 151
"../../../Engine/Content/EngineDebugMaterials/M_SimpleUnlitTranslucent.uasset" 152
"../../../Engine/Content/EngineDebugMaterials/M_SimpleUnlitTranslucent.uexp" 153
"../../../Engine/Content/EngineDebugMaterials/VolumeToRender.uasset" 154
"../../../Engine/Content/EngineDebugMaterials/VolumeToRender.uexp" 155
"../../../Engine/Content/Functions/Engine_MaterialFunctions02/Utility/CameraDirectionVector.uasset" 156
"../../../Engine/Content/Functions/Engine_MaterialFunctions02/Utility/CameraDirectionVector.uexp" 157
"../../../Engine/Content/EngineDebugMaterials/M_VolumeRenderSphereTracePP.uasset" 158
"../../../Engine/Content/EngineDebugMaterials/M_VolumeRenderSphereTracePP.uexp" 159
"../../../Engine/Content/Functions/Engine_MaterialFunctions01/Shading/ConvertFromDiffSpec.uasset" 160
"../../../Engine/Content/Functions/Engine_MaterialFunctions01/Shading/ConvertFromDiffSpec.uexp" 161
"../../../Engine/Content/EngineDebugMaterials/VertexColorMaterial.uasset" 162
"../../../Engine/Content/EngineDebugMaterials/VertexColorMaterial.uexp" 163
"../../../Engine/Content/EngineDebugMaterials/WireframeMaterial.uasset" 164
"../../../Engine/Content/EngineDebugMaterials/WireframeMaterial.uexp" 165
"../../../Engine/Content/EngineFonts/Faces/RobotoItalic.uasset" 166
"../../../Engine/Content/EngineFonts/Faces/RobotoItalic.uexp" 167
"../../../Engine/Content/EngineFonts/Faces/RobotoItalic.ufont" 168
"../../../Engine/Content/EngineFonts/Faces/RobotoBoldItalic.uasset" 169
"../../../Engine/Content/EngineFonts/Faces/RobotoBoldItalic.uexp" 170
"../../../Engine/Content/EngineFonts/Faces/RobotoBoldItalic.ufont" 171
"../../../Engine/Content/EngineFonts/Faces/RobotoBold.uasset" 172
"../../../Engine/Content/EngineFonts/Faces/RobotoBold.uexp" 173
"../../../Engine/Content/EngineFonts/Faces/RobotoBold.ufont" 174
"../../../Engine/Content/EngineFonts/Faces/DroidSansFallback.uasset" 175
"../../../Engine/Content/EngineFonts/Faces/DroidSansFallback.uexp" 176
"../../../Engine/Content/EngineFonts/Faces/DroidSansFallback.ufont" 177
"../../../Engine/Content/EngineFonts/Faces/RobotoRegular.uasset" 178
"../../../Engine/Content/EngineFonts/Faces/RobotoRegular.uexp" 179
"../../../Engine/Content/EngineFonts/Faces/RobotoRegular.ufont" 180
"../../../Engine/Content/EngineFonts/Faces/RobotoLight.uasset" 181
"../../../Engine/Content/EngineFonts/Faces/RobotoLight.uexp" 182
"../../../Engine/Content/EngineFonts/Faces/RobotoLight.ufont" 183
"../../../Engine/Content/EngineFonts/Roboto.uasset" 184
"../../../Engine/Content/EngineFonts/Roboto.uexp" 185
"../../../Engine/Content/EngineMaterials/BaseFlattenNormalMap.uasset" 186
"../../../Engine/Content/EngineMaterials/BaseFlattenNormalMap.uexp" 187
"../../../Engine/Content/EngineMaterials/BaseFlattenGrayscaleMap.uasset" 188
"../../../Engine/Content/EngineMaterials/BaseFlattenGrayscaleMap.uexp" 189
"../../../Engine/Content/EngineMaterials/BaseFlattenEmissiveMap.uasset" 190
"../../../Engine/Content/EngineMaterials/BaseFlattenEmissiveMap.uexp" 191
"../../../Engine/Content/EngineMaterials/BaseFlattenDiffuseMap.uasset" 192
"../../../Engine/Content/EngineMaterials/BaseFlattenDiffuseMap.uexp" 193
"../../../Engine/Content/EngineMaterials/BaseFlattenMaterial.uasset" 194
"../../../Engine/Content/EngineMaterials/BaseFlattenMaterial.uexp" 195
"../../../Engine/Content/EngineMaterials/BlueNoise.uasset" 196
"../../../Engine/Content/EngineMaterials/BlueNoise.uexp" 197
"../../../Engine/Content/EngineMaterials/DefaultBloomKernel.uasset" 198
"../../../Engine/Content/EngineMaterials/DefaultBloomKernel.uexp" 199
"../../../Engine/Content/EngineMaterials/DefaultBokeh.uasset" 200
"../../../Engine/Content/EngineMaterials/DefaultBokeh.uexp" 201
"../../../Engine/Content/EngineMaterials/DefaultDiffuse.uasset" 202
"../../../Engine/Content/EngineMaterials/DefaultDiffuse.uexp" 203
"../../../Engine/Content/EngineMaterials/DefaultDiffuse.ubulk" 204
"../../../Engine/Content/EngineMaterials/DefaultDeferredDecalMaterial.uasset" 205
"../../../Engine/Content/EngineMaterials/DefaultDeferredDecalMaterial.uexp" 206
"../../../Engine/Content/EngineMaterials/DefaultLightFunctionMaterial.uasset" 207
"../../../Engine/Content/EngineMaterials/DefaultLightFunctionMaterial.uexp" 208
"../../../Engine/Content/EngineMaterials/DefaultPhysicalMaterial.uasset" 209
"../../../Engine/Content/EngineMaterials/DefaultPhysicalMaterial.uexp" 210
"../../../Engine/Content/Functions/Engine_MaterialFunctions02/Utility/BreakOutFloat2Components.uasset" 211
"../../../Engine/Content/Functions/Engine_MaterialFunctions02/Utility/BreakOutFloat2Components.uexp" 212
"../../../Engine/Content/EngineMaterials/DefaultPostProcessMaterial.uasset" 213
"../../../Engine/Content/EngineMaterials/DefaultPostProcessMaterial.uexp" 214
"../../../Engine/Content/EngineFonts/RobotoDistanceField.uasset" 215
"../../../Engine/Content/EngineFonts/RobotoDistanceField.uexp" 216
"../../../Engine/Content/EngineMaterials/DefaultTextMaterialOpaque.uasset" 217
"../../../Engine/Content/EngineMaterials/DefaultTextMaterialOpaque.uexp" 218
"../../../Engine/Content/EngineMaterials/DefaultWhiteGrid.uasset" 219
"../../../Engine/Content/EngineMaterials/DefaultWhiteGrid.uexp" 220
"../../../Engine/Content/EngineMaterials/DefaultWhiteGrid.ubulk" 221
"../../../Engine/Content/EngineMaterials/DefaultWhiteGrid_Low.uasset" 222
"../../../Engine/Content/EngineMaterials/DefaultWhiteGrid_Low.uexp" 223
"../../../Engine/Content/EngineMaterials/EmissiveMeshMaterial.uasset" 224
"../../../Engine/Content/EngineMaterials/EmissiveMeshMaterial.uexp" 225
"../../../Engine/Content/EngineMaterials/GizmoMaterial.uasset" 226
"../../../Engine/Content/EngineMaterials/GizmoMaterial.uexp" 227
"../../../Engine/Content/EngineMaterials/Good64x64TilingNoiseHighFreq.uasset" 228
"../../../Engine/Content/EngineMaterials/Good64x64TilingNoiseHighFreq.uexp" 229
"../../../Engine/Content/EngineMaterials/MiniFont.uasset" 230
"../../../Engine/Content/EngineMaterials/MiniFont.uexp" 231
"../../../Engine/Content/EngineMaterials/InvalidLightmapSettings.uasset" 232
"../../../Engine/Content/EngineMaterials/InvalidLightmapSettings.uexp" 233
"../../../Engine/Content/EngineMaterials/InvalidLightmapSettings.ubulk" 234
"../../../Engine/Content/EngineMaterials/M_InvalidLightmapSettings.uasset" 235
"../../../Engine/Content/EngineMaterials/M_InvalidLightmapSettings.uexp" 236
"../../../Engine/Content/Functions/Engine_MaterialFunctions02/WorldPositionOffset/CameraOffset.uasset" 237
"../../../Engine/Content/Functions/Engine_MaterialFunctions02/WorldPositionOffset/CameraOffset.uexp" 238
"../../../Engine/Content/EngineMaterials/PhAT_JointLimitMaterial.uasset" 239
"../../../Engine/Content/EngineMaterials/PhAT_JointLimitMaterial.uexp" 240
"../../../Engine/Content/EngineMaterials/DefaultCalibrationColor.uasset" 241
"../../../Engine/Content/EngineMaterials/DefaultCalibrationColor.uexp" 242
"../../../Engine/Content/EngineMaterials/PPM_DefaultCalibrationColor.uasset" 243
"../../../Engine/Content/EngineMaterials/PPM_DefaultCalibrationColor.uexp" 244
"../../../Engine/Content/EngineMaterials/DefaultCalibrationGrayscale.uasset" 245
"../../../Engine/Content/EngineMaterials/DefaultCalibrationGrayscale.uexp" 246
"../../../Engine/Content/EngineMaterials/PPM_DefaultCalibrationGrayscale.uasset" 247
"../../../Engine/Content/EngineMaterials/PPM_DefaultCalibrationGrayscale.uexp" 248
"../../../Engine/Content/EngineMaterials/PreintegratedSkinBRDF.uasset" 249
"../../../Engine/Content/EngineMaterials/PreintegratedSkinBRDF.uexp" 250
"../../../Engine/Content/EngineMaterials/RemoveSurfaceMaterial.uasset" 251
"../../../Engine/Content/EngineMaterials/RemoveSurfaceMaterial.uexp" 252
"../../../Engine/Content/EngineMaterials/WeightMapPlaceholderTexture.uasset" 253
"../../../Engine/Content/EngineMaterials/WeightMapPlaceholderTexture.uexp" 254
"../../../Engine/Content/EngineResources/WhiteSquareTexture.uasset" 255
"../../../Engine/Content/EngineResources/WhiteSquareTexture.uexp" 256
"../../../Engine/Content/EngineMaterials/Widget3DPassThrough.uasset" 257
"../../../Engine/Content/EngineMaterials/Widget3DPassThrough.uexp" 258
"../../../Engine/Content/EngineMaterials/Widget3DPassThrough_Masked.uasset" 259
"../../../Engine/Content/EngineMaterials/Widget3DPassThrough_Masked.uexp" 260
"../../../Engine/Content/EngineMaterials/Widget3DPassThrough_Opaque.uasset" 261
"../../../Engine/Content/EngineMaterials/Widget3DPassThrough_Opaque.uexp" 262
"../../../Engine/Content/EngineMaterials/Widget3DPassThrough_Masked_OneSided.uasset" 263
"../../../Engine/Content/EngineMaterials/Widget3DPassThrough_Masked_OneSided.uexp" 264
"../../../Engine/Content/EngineMaterials/Widget3DPassThrough_Opaque_OneSided.uasset" 265
"../../../Engine/Content/EngineMaterials/Widget3DPassThrough_Opaque_OneSided.uexp" 266
"../../../Engine/Content/EngineMaterials/Widget3DPassThrough_Translucent.uasset" 267
"../../../Engine/Content/EngineMaterials/Widget3DPassThrough_Translucent.uexp" 268
"../../../Engine/Content/EngineMaterials/Widget3DPassThrough_Translucent_OneSided.uasset" 269
"../../../Engine/Content/EngineMaterials/Widget3DPassThrough_Translucent_OneSided.uexp" 270
"../../../Engine/Content/EngineMeshes/Cylinder.uasset" 271
"../../../Engine/Content/EngineMeshes/Cylinder.uexp" 272
"../../../Engine/Content/EngineMeshes/Sphere.uasset" 273
"../../../Engine/Content/EngineMeshes/Sphere.uexp" 274
"../../../Engine/Content/EngineResources/DefaultTexture.uasset" 275
"../../../Engine/Content/EngineResources/DefaultTexture.uexp" 276
"../../../Engine/Content/EngineResources/DefaultTexture.ubulk" 277
"../../../Engine/Content/EngineResources/DefaultTextureCube.uasset" 278
"../../../Engine/Content/EngineResources/DefaultTextureCube.uexp" 279
"../../../Engine/Content/EngineResources/DefaultVolumeTexture2D.uasset" 280
"../../../Engine/Content/EngineResources/DefaultVolumeTexture2D.uexp" 281
"../../../Engine/Content/EngineResources/DefaultVolumeTexture.uasset" 282
"../../../Engine/Content/EngineResources/DefaultVolumeTexture.uexp" 283
"../../../Engine/Content/EngineResources/GradientTexture0.uasset" 284
"../../../Engine/Content/EngineResources/GradientTexture0.uexp" 285
"../../../Engine/Content/EngineSky/VolumetricClouds/T_NoiseShape64.uasset" 286
"../../../Engine/Content/EngineSky/VolumetricClouds/T_NoiseShape64.uexp" 287
"../../../Engine/Content/EngineSky/VolumetricClouds/T_NoiseShape64.ubulk" 288
"../../../Engine/Content/EngineSky/VolumetricClouds/T_VolumeNoiseShape64.uasset" 289
"../../../Engine/Content/EngineSky/VolumetricClouds/T_VolumeNoiseShape64.uexp" 290
"../../../Engine/Content/EngineSky/VolumetricClouds/T_NoiseErosion.uasset" 291
"../../../Engine/Content/EngineSky/VolumetricClouds/T_NoiseErosion.uexp" 292
"../../../Engine/Content/EngineSky/VolumetricClouds/T_NoiseErosion.ubulk" 293
"../../../Engine/Content/EngineSky/VolumetricClouds/T_VolumeNoiseErosion32.uasset" 294
"../../../Engine/Content/EngineSky/VolumetricClouds/T_VolumeNoiseErosion32.uexp" 295
"../../../Engine/Content/EngineSky/VolumetricClouds/CloudWeatherTexture.uasset" 296
"../../../Engine/Content/EngineSky/VolumetricClouds/CloudWeatherTexture.uexp" 297
"../../../Engine/Content/EngineSky/VolumetricClouds/CloudGradientTexture.uasset" 298
"../../../Engine/Content/EngineSky/VolumetricClouds/CloudGradientTexture.uexp" 299
"../../../Engine/Content/Functions/Engine_MaterialFunctions02/Utility/MakeFloat2.uasset" 300
"../../../Engine/Content/Functions/Engine_MaterialFunctions02/Utility/MakeFloat2.uexp" 301
"../../../Engine/Content/EngineSky/VolumetricClouds/m_SimpleVolumetricCloud.uasset" 302
"../../../Engine/Content/EngineSky/VolumetricClouds/m_SimpleVolumetricCloud.uexp" 303
"../../../Engine/Content/EngineSky/VolumetricClouds/m_SimpleVolumetricCloud_Inst.uasset" 304
"../../../Engine/Content/EngineSky/VolumetricClouds/m_SimpleVolumetricCloud_Inst.uexp" 305
"../../../Engine/Content/EngineSounds/Master.uasset" 306
"../../../Engine/Content/EngineSounds/Master.uexp" 307
"../../../Engine/Content/Functions/Engine_MaterialFunctions01/Shading/PowerToRoughness.uasset" 308
"../../../Engine/Content/Functions/Engine_MaterialFunctions01/Shading/PowerToRoughness.uexp" 309
"../../../Engine/Content/Maps/Templates/Thumbnails/Default.uasset" 310
"../../../Engine/Content/Maps/Templates/Thumbnails/Default.uexp" 311
"../../../Engine/Content/Maps/Templates/Thumbnails/TimeOfDay.uasset" 312
"../../../Engine/Content/Maps/Templates/Thumbnails/TimeOfDay.uexp" 313
"../../../Engine/Content/Maps/Templates/Thumbnails/VR-Basic.uasset" 314
"../../../Engine/Content/Maps/Templates/Thumbnails/VR-Basic.uexp" 315
"../../../Engine/Content/MobileResources/T_MobileControls_texture.uasset" 316
"../../../Engine/Content/MobileResources/T_MobileControls_texture.uexp" 317
"../../../Engine/Content/MobileResources/T_MobileMenu2.uasset" 318
"../../../Engine/Content/MobileResources/T_MobileMenu2.uexp" 319
"../../../Engine/Content/MobileResources/HUD/AnalogHat.uasset" 320
"../../../Engine/Content/MobileResources/HUD/AnalogHat.uexp" 321
"../../../Engine/Content/MobileResources/HUD/VirtualJoystick_Thumb.uasset" 322
"../../../Engine/Content/MobileResources/HUD/VirtualJoystick_Thumb.uexp" 323
"../../../Engine/Content/MobileResources/HUD/VirtualJoystick_Background.uasset" 324
"../../../Engine/Content/MobileResources/HUD/VirtualJoystick_Background.uexp" 325
"../../../Engine/Content/MobileResources/HUD/DefaultVirtualJoysticks.uasset" 326
"../../../Engine/Content/MobileResources/HUD/DefaultVirtualJoysticks.uexp" 327
"../../../Engine/Content/MobileResources/HUD/LeftVirtualJoystickOnly.uasset" 328
"../../../Engine/Content/MobileResources/HUD/LeftVirtualJoystickOnly.uexp" 329
"../../../Engine/Content/MobileResources/HUD/MobileHUDButton1_off.uasset" 330
"../../../Engine/Content/MobileResources/HUD/MobileHUDButton1_off.uexp" 331
"../../../Engine/Content/MobileResources/HUD/MobileHUDButton1_on.uasset" 332
"../../../Engine/Content/MobileResources/HUD/MobileHUDButton1_on.uexp" 333
"../../../Engine/Content/MobileResources/HUD/MobileHUDButton2_off.uasset" 334
"../../../Engine/Content/MobileResources/HUD/MobileHUDButton2_off.uexp" 335
"../../../Engine/Content/MobileResources/HUD/MobileHUDButton2_on.uasset" 336
"../../../Engine/Content/MobileResources/HUD/MobileHUDButton2_on.uexp" 337
"../../../Engine/Content/MobileResources/HUD/MobileHUDButton3.uasset" 338
"../../../Engine/Content/MobileResources/HUD/MobileHUDButton3.uexp" 339
"../../../Engine/Content/MobileResources/HUD/MobileHUDButtonFire.uasset" 340
"../../../Engine/Content/MobileResources/HUD/MobileHUDButtonFire.uexp" 341
"../../../Engine/Content/MobileResources/HUD/MobileHUDDirectionPad.uasset" 342
"../../../Engine/Content/MobileResources/HUD/MobileHUDDirectionPad.uexp" 343
"../../../Engine/Content/MobileResources/HUD/MobileHUDDirectionPad2.uasset" 344
"../../../Engine/Content/MobileResources/HUD/MobileHUDDirectionPad2.uexp" 345
"../../../Engine/Content/MobileResources/HUD/MobileHUDDirectionPad3.uasset" 346
"../../../Engine/Content/MobileResources/HUD/MobileHUDDirectionPad3.uexp" 347
"../../../Engine/Content/MobileResources/HUD/MobileHUDDirectionStick.uasset" 348
"../../../Engine/Content/MobileResources/HUD/MobileHUDDirectionStick.uexp" 349
"../../../Engine/Content/MobileResources/HUD/T_Castle_ThumbstickInner.uasset" 350
"../../../Engine/Content/MobileResources/HUD/T_Castle_ThumbstickInner.uexp" 351
"../../../Engine/Content/MobileResources/HUD/T_Castle_ThumbstickOutter.uasset" 352
"../../../Engine/Content/MobileResources/HUD/T_Castle_ThumbstickOutter.uexp" 353
"../../../Engine/Content/Tutorial/ContentIntroCurve.uasset" 354
"../../../Engine/Content/Tutorial/ContentIntroCurve.uexp" 355
"../../../Engine/Content/Tutorial/Basics/TutorialAssets/icon_tab_Levels_40x.uasset" 356
"../../../Engine/Content/Tutorial/Basics/TutorialAssets/icon_tab_Levels_40x.uexp" 357
"../../../Engine/Content/Tutorial/BlueprintTutorials/TutorialAssets/Blueprint_64x.uasset" 358
"../../../Engine/Content/Tutorial/BlueprintTutorials/TutorialAssets/Blueprint_64x.uexp" 359
"../../../Engine/Content/Tutorial/Landscape/TutorialAssets/Landscape.uasset" 360
"../../../Engine/Content/Tutorial/Landscape/TutorialAssets/Landscape.uexp" 361
"../../../Engine/Content/EditorBlueprintResources/StandardMacros.uasset" 362
"../../../Engine/Content/EditorBlueprintResources/StandardMacros.uexp" 363
"../../../Engine/Content/VREditor/TransformGizmo/TranslucentTransformGizmoMaterial.uasset" 364
"../../../Engine/Content/VREditor/TransformGizmo/TranslucentTransformGizmoMaterial.uexp" 365
"../../../Engine/Content/VREditor/LaserPointer/VR_LaserPower_01.uasset" 366
"../../../Engine/Content/VREditor/LaserPointer/VR_LaserPower_01.uexp" 367
"../../../Engine/Content/VREditor/LaserPointer/VR_LaserPower_01.ubulk" 368
"../../../Engine/Content/VREditor/TransformGizmo/TransformGizmoMaterial.uasset" 369
"../../../Engine/Content/VREditor/TransformGizmo/TransformGizmoMaterial.uexp" 370
"../../../Engine/Content/VREditor/TransformGizmo/BoundingBoxCorner.uasset" 371
"../../../Engine/Content/VREditor/TransformGizmo/BoundingBoxCorner.uexp" 372
"../../../Engine/Content/VREditor/TransformGizmo/BoundingBoxEdge.uasset" 373
"../../../Engine/Content/VREditor/TransformGizmo/BoundingBoxEdge.uexp" 374
"../../../Engine/Content/VREditor/TransformGizmo/PlaneTranslationHandle.uasset" 375
"../../../Engine/Content/VREditor/TransformGizmo/PlaneTranslationHandle.uexp" 376
"../../../Engine/Content/VREditor/TransformGizmo/Xray.uasset" 377
"../../../Engine/Content/VREditor/TransformGizmo/Xray.uexp" 378
"../../../Engine/Content/VREditor/TransformGizmo/Main.uasset" 379
"../../../Engine/Content/VREditor/TransformGizmo/Main.uexp" 380
"../../../Engine/Content/VREditor/TransformGizmo/SM_Sequencer_Key.uasset" 381
"../../../Engine/Content/VREditor/TransformGizmo/SM_Sequencer_Key.uexp" 382
"../../../Engine/Content/VREditor/TransformGizmo/SM_Sequencer_Node.uasset" 383
"../../../Engine/Content/VREditor/TransformGizmo/SM_Sequencer_Node.uexp" 384
"../../../Engine/Plugins/2D/Paper2D/Content/PlaceholderTextures/DummySpriteTexture.uasset" 385
"../../../Engine/Plugins/2D/Paper2D/Content/PlaceholderTextures/DummySpriteTexture.uexp" 386
"../../../Engine/Plugins/2D/Paper2D/Content/PlaceholderTextures/DummySpriteTexture.ubulk" 387
"../../../Engine/Plugins/2D/Paper2D/Content/DummySprite.uasset" 388
"../../../Engine/Plugins/2D/Paper2D/Content/DummySprite.uexp" 389
"../../../Engine/Plugins/2D/Paper2D/Content/DefaultPaperTerrainMaterial.uasset" 390
"../../../Engine/Plugins/2D/Paper2D/Content/DefaultPaperTerrainMaterial.uexp" 391
"../../../Engine/Plugins/2D/Paper2D/Content/DefaultSpriteMaterial.uasset" 392
"../../../Engine/Plugins/2D/Paper2D/Content/DefaultSpriteMaterial.uexp" 393
"../../../Engine/Plugins/2D/Paper2D/Content/MaskedUnlitSpriteMaterial.uasset" 394
"../../../Engine/Plugins/2D/Paper2D/Content/MaskedUnlitSpriteMaterial.uexp" 395
"../../../Engine/Plugins/2D/Paper2D/Content/OpaqueUnlitSpriteMaterial.uasset" 396
"../../../Engine/Plugins/2D/Paper2D/Content/OpaqueUnlitSpriteMaterial.uexp" 397
"../../../Engine/Content/Functions/Engine_MaterialFunctions02/Utility/BreakOutFloat3Components.uasset" 398
"../../../Engine/Content/Functions/Engine_MaterialFunctions02/Utility/BreakOutFloat3Components.uexp" 399
"../../../Engine/Plugins/Editor/SpeedTreeImporter/Content/SpeedTree9/UnpackInteger3.uasset" 400
"../../../Engine/Plugins/Editor/SpeedTreeImporter/Content/SpeedTree9/UnpackInteger3.uexp" 401
"../../../Engine/Plugins/Editor/SpeedTreeImporter/Content/SpeedTree9/UnpackDirection.uasset" 402
"../../../Engine/Plugins/Editor/SpeedTreeImporter/Content/SpeedTree9/UnpackDirection.uexp" 403
"../../../Engine/Plugins/Editor/SpeedTreeImporter/Content/SpeedTree9/game_wind_noise.uasset" 404
"../../../Engine/Plugins/Editor/SpeedTreeImporter/Content/SpeedTree9/game_wind_noise.uexp" 405
"../../../Engine/Plugins/Editor/SpeedTreeImporter/Content/SpeedTree9/game_wind_noise.ubulk" 406
"../../../Engine/Content/Functions/Engine_MaterialFunctions02/SafeNormalize.uasset" 407
"../../../Engine/Content/Functions/Engine_MaterialFunctions02/SafeNormalize.uexp" 408
"../../../Engine/Plugins/Editor/SpeedTreeImporter/Content/SpeedTree9/SpeedTreeWindMotion.uasset" 409
"../../../Engine/Plugins/Editor/SpeedTreeImporter/Content/SpeedTree9/SpeedTreeWindMotion.uexp" 410
"../../../Engine/Plugins/Editor/SpeedTreeImporter/Content/SpeedTree9/SpeedTreeBranchMotion.uasset" 411
"../../../Engine/Plugins/Editor/SpeedTreeImporter/Content/SpeedTree9/SpeedTreeBranchMotion.uexp" 412
"../../../Engine/Content/Functions/Engine_MaterialFunctions02/ObjectLocalBounds.uasset" 413
"../../../Engine/Content/Functions/Engine_MaterialFunctions02/ObjectLocalBounds.uexp" 414
"../../../Engine/Content/Functions/Engine_MaterialFunctions02/UVs/BoundingBoxBased_0-1_UVW.uasset" 415
"../../../Engine/Content/Functions/Engine_MaterialFunctions02/UVs/BoundingBoxBased_0-1_UVW.uexp" 416
"../../../Engine/Content/Functions/Engine_MaterialFunctions02/Utility/VectorLength.uasset" 417
"../../../Engine/Content/Functions/Engine_MaterialFunctions02/Utility/VectorLength.uexp" 418
"../../../Engine/Content/Functions/Engine_MaterialFunctions02/WorldPositionOffset/ObjectScale.uasset" 419
"../../../Engine/Content/Functions/Engine_MaterialFunctions02/WorldPositionOffset/ObjectScale.uexp" 420
"../../../Engine/Plugins/Editor/SpeedTreeImporter/Content/SpeedTree9/SpeedTreeWind.uasset" 421
"../../../Engine/Plugins/Editor/SpeedTreeImporter/Content/SpeedTree9/SpeedTreeWind.uexp" 422
"../../../Engine/Plugins/Editor/SpeedTreeImporter/Content/SpeedTree9/SpeedTreeBillboard.uasset" 423
"../../../Engine/Plugins/Editor/SpeedTreeImporter/Content/SpeedTree9/SpeedTreeBillboard.uexp" 424
"../../../Engine/Plugins/Editor/SpeedTreeImporter/Content/SpeedTree9/EmptyNormal.uasset" 425
"../../../Engine/Plugins/Editor/SpeedTreeImporter/Content/SpeedTree9/EmptyNormal.uexp" 426
"../../../Engine/Plugins/Editor/SpeedTreeImporter/Content/SpeedTree9/Empty.uasset" 427
"../../../Engine/Plugins/Editor/SpeedTreeImporter/Content/SpeedTree9/Empty.uexp" 428
"../../../Engine/Plugins/Editor/SpeedTreeImporter/Content/SpeedTree9/SpeedTreeBillboardMaster.uasset" 429
"../../../Engine/Plugins/Editor/SpeedTreeImporter/Content/SpeedTree9/SpeedTreeBillboardMaster.uexp" 430
"../../../Engine/Plugins/Editor/SpeedTreeImporter/Content/SpeedTree9/SpeedTreeCameraFacing.uasset" 431
"../../../Engine/Plugins/Editor/SpeedTreeImporter/Content/SpeedTree9/SpeedTreeCameraFacing.uexp" 432
"../../../Engine/Plugins/Editor/SpeedTreeImporter/Content/SpeedTree9/SpeedTreeMaster.uasset" 433
"../../../Engine/Plugins/Editor/SpeedTreeImporter/Content/SpeedTree9/SpeedTreeMaster.uexp" 434
"../../../Engine/Content/ArtTools/RenderToTexture/Materials/Debug/M_Emissive_Color.uasset" 435
"../../../Engine/Content/ArtTools/RenderToTexture/Materials/Debug/M_Emissive_Color.uexp" 436
"../../../Engine/Content/BasicShapes/Cylinder.uasset" 437
"../../../Engine/Content/BasicShapes/Cylinder.uexp" 438
"../../../Engine/Plugins/Lumin/MagicLeapPassableWorld/Content/MagicLeapARPinInfoActor.uasset" 439
"../../../Engine/Plugins/Lumin/MagicLeapPassableWorld/Content/MagicLeapARPinInfoActor.uexp" 440
"../../../Engine/Plugins/Runtime/OpenXR/Content/Devices/GoogleDaydream/MRTexture.uasset" 441
"../../../Engine/Plugins/Runtime/OpenXR/Content/Devices/GoogleDaydream/MRTexture.uexp" 442
"../../../Engine/Plugins/Runtime/OpenXR/Content/Devices/GoogleDaydream/MRTexture.ubulk" 443
"../../../Engine/Plugins/Runtime/OpenXR/Content/Devices/GoogleDaydream/BaseTexture.uasset" 444
"../../../Engine/Plugins/Runtime/OpenXR/Content/Devices/GoogleDaydream/BaseTexture.uexp" 445
"../../../Engine/Plugins/Runtime/OpenXR/Content/Devices/GoogleDaydream/BaseTexture.ubulk" 446
"../../../Engine/Content/EngineResources/Black.uasset" 447
"../../../Engine/Content/EngineResources/Black.uexp" 448
"../../../Engine/Plugins/Runtime/OpenXR/Content/Devices/M_XRController.uasset" 449
"../../../Engine/Plugins/Runtime/OpenXR/Content/Devices/M_XRController.uexp" 450
"../../../Engine/Plugins/Runtime/OpenXR/Content/Devices/GoogleDaydream/MI_GoogleDaydream.uasset" 451
"../../../Engine/Plugins/Runtime/OpenXR/Content/Devices/GoogleDaydream/MI_GoogleDaydream.uexp" 452
"../../../Engine/Plugins/Runtime/OpenXR/Content/Devices/GoogleDaydream/GoogleDaydreamController.uasset" 453
"../../../Engine/Plugins/Runtime/OpenXR/Content/Devices/GoogleDaydream/GoogleDaydreamController.uexp" 454
"../../../Engine/Plugins/Runtime/OpenXR/Content/Devices/HTCVive/BaseTexture.uasset" 455
"../../../Engine/Plugins/Runtime/OpenXR/Content/Devices/HTCVive/BaseTexture.uexp" 456
"../../../Engine/Plugins/Runtime/OpenXR/Content/Devices/HTCVive/BaseTexture.ubulk" 457
"../../../Engine/Plugins/Runtime/OpenXR/Content/Devices/HTCVive/MI_HTCVive.uasset" 458
"../../../Engine/Plugins/Runtime/OpenXR/Content/Devices/HTCVive/MI_HTCVive.uexp" 459
"../../../Engine/Plugins/Runtime/OpenXR/Content/Devices/HTCVive/HTCViveController.uasset" 460
"../../../Engine/Plugins/Runtime/OpenXR/Content/Devices/HTCVive/HTCViveController.uexp" 461
"../../../Engine/Plugins/Runtime/OpenXR/Content/Devices/MicrosoftMixedReality/NormalTexture.uasset" 462
"../../../Engine/Plugins/Runtime/OpenXR/Content/Devices/MicrosoftMixedReality/NormalTexture.uexp" 463
"../../../Engine/Plugins/Runtime/OpenXR/Content/Devices/MicrosoftMixedReality/NormalTexture.ubulk" 464
"../../../Engine/Plugins/Runtime/OpenXR/Content/Devices/MicrosoftMixedReality/MRTexture.uasset" 465
"../../../Engine/Plugins/Runtime/OpenXR/Content/Devices/MicrosoftMixedReality/MRTexture.uexp" 466
"../../../Engine/Plugins/Runtime/OpenXR/Content/Devices/MicrosoftMixedReality/MRTexture.ubulk" 467
"../../../Engine/Plugins/Runtime/OpenXR/Content/Devices/MicrosoftMixedReality/EmissiveTexture.uasset" 468
"../../../Engine/Plugins/Runtime/OpenXR/Content/Devices/MicrosoftMixedReality/EmissiveTexture.uexp" 469
"../../../Engine/Plugins/Runtime/OpenXR/Content/Devices/MicrosoftMixedReality/EmissiveTexture.ubulk" 470
"../../../Engine/Plugins/Runtime/OpenXR/Content/Devices/MicrosoftMixedReality/BaseTexture.uasset" 471
"../../../Engine/Plugins/Runtime/OpenXR/Content/Devices/MicrosoftMixedReality/BaseTexture.uexp" 472
"../../../Engine/Plugins/Runtime/OpenXR/Content/Devices/MicrosoftMixedReality/BaseTexture.ubulk" 473
"../../../Engine/Plugins/Runtime/OpenXR/Content/Devices/MicrosoftMixedReality/MI_MicrosoftMixedReality.uasset" 474
"../../../Engine/Plugins/Runtime/OpenXR/Content/Devices/MicrosoftMixedReality/MI_MicrosoftMixedReality.uexp" 475
"../../../Engine/Plugins/Runtime/OpenXR/Content/Devices/MicrosoftMixedReality/Left/left_MicrosoftMixedRealityController.uasset" 476
"../../../Engine/Plugins/Runtime/OpenXR/Content/Devices/MicrosoftMixedReality/Left/left_MicrosoftMixedRealityController.uexp" 477
"../../../Engine/Plugins/Runtime/OpenXR/Content/Devices/MicrosoftMixedReality/Right/right_MicrosoftMixedRealityController.uasset" 478
"../../../Engine/Plugins/Runtime/OpenXR/Content/Devices/MicrosoftMixedReality/Right/right_MicrosoftMixedRealityController.uexp" 479
"../../../Engine/Plugins/Runtime/OpenXR/Content/Devices/OculusGo/BaseTexture.uasset" 480
"../../../Engine/Plugins/Runtime/OpenXR/Content/Devices/OculusGo/BaseTexture.uexp" 481
"../../../Engine/Plugins/Runtime/OpenXR/Content/Devices/OculusGo/BaseTexture.ubulk" 482
"../../../Engine/Plugins/Runtime/OpenXR/Content/Devices/OculusGo/MI_OculusGo.uasset" 483
"../../../Engine/Plugins/Runtime/OpenXR/Content/Devices/OculusGo/MI_OculusGo.uexp" 484
"../../../Engine/Plugins/Runtime/OpenXR/Content/Devices/OculusGo/OculusGoController.uasset" 485
"../../../Engine/Plugins/Runtime/OpenXR/Content/Devices/OculusGo/OculusGoController.uexp" 486
"../../../Engine/Plugins/Runtime/OpenXR/Content/Devices/OculusTouch/MRTexture.uasset" 487
"../../../Engine/Plugins/Runtime/OpenXR/Content/Devices/OculusTouch/MRTexture.uexp" 488
"../../../Engine/Plugins/Runtime/OpenXR/Content/Devices/OculusTouch/MRTexture.ubulk" 489
"../../../Engine/Plugins/Runtime/OpenXR/Content/Devices/OculusTouch/BaseTexture.uasset" 490
"../../../Engine/Plugins/Runtime/OpenXR/Content/Devices/OculusTouch/BaseTexture.uexp" 491
"../../../Engine/Plugins/Runtime/OpenXR/Content/Devices/OculusTouch/BaseTexture.ubulk" 492
"../../../Engine/Plugins/Runtime/OpenXR/Content/Devices/OculusTouch/MI_OculusTouch.uasset" 493
"../../../Engine/Plugins/Runtime/OpenXR/Content/Devices/OculusTouch/MI_OculusTouch.uexp" 494
"../../../Engine/Plugins/Runtime/OpenXR/Content/Devices/OculusTouch/Left/left_OculusTouchController.uasset" 495
"../../../Engine/Plugins/Runtime/OpenXR/Content/Devices/OculusTouch/Left/left_OculusTouchController.uexp" 496
"../../../Engine/Plugins/Runtime/OpenXR/Content/Devices/OculusTouch/Right/right_OculusTouchController.uasset" 497
"../../../Engine/Plugins/Runtime/OpenXR/Content/Devices/OculusTouch/Right/right_OculusTouchController.uexp" 498
"../../../Engine/Plugins/Runtime/OpenXR/Content/Devices/OculusTouch_v2/MRTexture.uasset" 499
"../../../Engine/Plugins/Runtime/OpenXR/Content/Devices/OculusTouch_v2/MRTexture.uexp" 500
"../../../Engine/Plugins/Runtime/OpenXR/Content/Devices/OculusTouch_v2/MRTexture.ubulk" 501
"../../../Engine/Plugins/Runtime/OpenXR/Content/Devices/OculusTouch_v2/BaseTexture.uasset" 502
"../../../Engine/Plugins/Runtime/OpenXR/Content/Devices/OculusTouch_v2/BaseTexture.uexp" 503
"../../../Engine/Plugins/Runtime/OpenXR/Content/Devices/OculusTouch_v2/BaseTexture.ubulk" 504
"../../../Engine/Plugins/Runtime/OpenXR/Content/Devices/OculusTouch_v2/MI_OculusTouch_v2.uasset" 505
"../../../Engine/Plugins/Runtime/OpenXR/Content/Devices/OculusTouch_v2/MI_OculusTouch_v2.uexp" 506
"../../../Engine/Plugins/Runtime/OpenXR/Content/Devices/OculusTouch_v2/Left/left_OculusTouch_v2Controller.uasset" 507
"../../../Engine/Plugins/Runtime/OpenXR/Content/Devices/OculusTouch_v2/Left/left_OculusTouch_v2Controller.uexp" 508
"../../../Engine/Plugins/Runtime/OpenXR/Content/Devices/OculusTouch_v2/Right/right_OculusTouch_v2Controller.uasset" 509
"../../../Engine/Plugins/Runtime/OpenXR/Content/Devices/OculusTouch_v2/Right/right_OculusTouch_v2Controller.uexp" 510
"../../../Engine/Plugins/Runtime/OpenXR/Content/Devices/OculusTouch_v3/MRTexture.uasset" 511
"../../../Engine/Plugins/Runtime/OpenXR/Content/Devices/OculusTouch_v3/MRTexture.uexp" 512
"../../../Engine/Plugins/Runtime/OpenXR/Content/Devices/OculusTouch_v3/MRTexture.ubulk" 513
"../../../Engine/Plugins/Runtime/OpenXR/Content/Devices/OculusTouch_v3/BaseTexture.uasset" 514
"../../../Engine/Plugins/Runtime/OpenXR/Content/Devices/OculusTouch_v3/BaseTexture.uexp" 515
"../../../Engine/Plugins/Runtime/OpenXR/Content/Devices/OculusTouch_v3/BaseTexture.ubulk" 516
"../../../Engine/Plugins/Runtime/OpenXR/Content/Devices/OculusTouch_v3/MI_OculusTouch_v3.uasset" 517
"../../../Engine/Plugins/Runtime/OpenXR/Content/Devices/OculusTouch_v3/MI_OculusTouch_v3.uexp" 518
"../../../Engine/Plugins/Runtime/OpenXR/Content/Devices/OculusTouch_v3/Left/left_OculusTouch_v3Controller.uasset" 519
"../../../Engine/Plugins/Runtime/OpenXR/Content/Devices/OculusTouch_v3/Left/left_OculusTouch_v3Controller.uexp" 520
"../../../Engine/Plugins/Runtime/OpenXR/Content/Devices/OculusTouch_v3/Right/right_OculusTouch_v3Controller.uasset" 521
"../../../Engine/Plugins/Runtime/OpenXR/Content/Devices/OculusTouch_v3/Right/right_OculusTouch_v3Controller.uexp" 522
"../../../Engine/Plugins/Runtime/OpenXR/Content/Devices/ValveIndex/MRTexture.uasset" 523
"../../../Engine/Plugins/Runtime/OpenXR/Content/Devices/ValveIndex/MRTexture.uexp" 524
"../../../Engine/Plugins/Runtime/OpenXR/Content/Devices/ValveIndex/MRTexture.ubulk" 525
"../../../Engine/Plugins/Runtime/OpenXR/Content/Devices/ValveIndex/BaseTexture.uasset" 526
"../../../Engine/Plugins/Runtime/OpenXR/Content/Devices/ValveIndex/BaseTexture.uexp" 527
"../../../Engine/Plugins/Runtime/OpenXR/Content/Devices/ValveIndex/BaseTexture.ubulk" 528
"../../../Engine/Plugins/Runtime/OpenXR/Content/Devices/ValveIndex/Left/MI_left_ValveIndex.uasset" 529
"../../../Engine/Plugins/Runtime/OpenXR/Content/Devices/ValveIndex/Left/MI_left_ValveIndex.uexp" 530
"../../../Engine/Plugins/Runtime/OpenXR/Content/Devices/ValveIndex/Left/left_ValveIndexController.uasset" 531
"../../../Engine/Plugins/Runtime/OpenXR/Content/Devices/ValveIndex/Left/left_ValveIndexController.uexp" 532
"../../../Engine/Plugins/Runtime/OpenXR/Content/Devices/ValveIndex/Right/MI_right_ValveIndex.uasset" 533
"../../../Engine/Plugins/Runtime/OpenXR/Content/Devices/ValveIndex/Right/MI_right_ValveIndex.uexp" 534
"../../../Engine/Plugins/Runtime/OpenXR/Content/Devices/ValveIndex/Right/right_ValveIndexController.uasset" 535
"../../../Engine/Plugins/Runtime/OpenXR/Content/Devices/ValveIndex/Right/right_ValveIndexController.uexp" 536
"../../../Engine/Content/Functions/Engine_MaterialFunctions02/Utility/BreakOutFloat4Components.uasset" 537
"../../../Engine/Content/Functions/Engine_MaterialFunctions02/Utility/BreakOutFloat4Components.uexp" 538
"../../../Engine/Content/Functions/Engine_MaterialFunctions02/Utility/MakeFloat3.uasset" 539
"../../../Engine/Content/Functions/Engine_MaterialFunctions02/Utility/MakeFloat3.uexp" 540
"../../../Engine/Plugins/Runtime/Oculus/OculusVR/Content/Materials/OculusMR_ChromaKey.uasset" 541
"../../../Engine/Plugins/Runtime/Oculus/OculusVR/Content/Materials/OculusMR_ChromaKey.uexp" 542
"../../../Engine/Plugins/Runtime/Oculus/OculusVR/Content/Materials/OculusMR_OpaqueColoredMaterial.uasset" 543
"../../../Engine/Plugins/Runtime/Oculus/OculusVR/Content/Materials/OculusMR_OpaqueColoredMaterial.uexp" 544
"../../../Engine/Plugins/Runtime/Oculus/OculusVR/Content/Materials/PokeAHoleMaterial.uasset" 545
"../../../Engine/Plugins/Runtime/Oculus/OculusVR/Content/Materials/PokeAHoleMaterial.uexp" 546
"../../../Engine/Plugins/Runtime/Oculus/OculusVR/Content/Textures/touchController_controlmap.uasset" 547
"../../../Engine/Plugins/Runtime/Oculus/OculusVR/Content/Textures/touchController_controlmap.uexp" 548
"../../../Engine/Plugins/Runtime/Oculus/OculusVR/Content/Textures/touchController_controlmap.ubulk" 549
"../../../Engine/Plugins/Runtime/Oculus/OculusVR/Content/Textures/touchController_albedo.uasset" 550
"../../../Engine/Plugins/Runtime/Oculus/OculusVR/Content/Textures/touchController_albedo.uexp" 551
"../../../Engine/Plugins/Runtime/Oculus/OculusVR/Content/Textures/touchController_albedo.ubulk" 552
"../../../Engine/Plugins/Runtime/Oculus/OculusVR/Content/Materials/touchController_mat.uasset" 553
"../../../Engine/Plugins/Runtime/Oculus/OculusVR/Content/Materials/touchController_mat.uexp" 554
"../../../Engine/Plugins/Runtime/Oculus/OculusVR/Content/Meshes/LeftTouchController.uasset" 555
"../../../Engine/Plugins/Runtime/Oculus/OculusVR/Content/Meshes/LeftTouchController.uexp" 556
"../../../Engine/Plugins/Runtime/Oculus/OculusVR/Content/Textures/TouchForQuestRiftSController_albedo.uasset" 557
"../../../Engine/Plugins/Runtime/Oculus/OculusVR/Content/Textures/TouchForQuestRiftSController_albedo.uexp" 558
"../../../Engine/Plugins/Runtime/Oculus/OculusVR/Content/Textures/TouchForQuestRiftSController_albedo.ubulk" 559
"../../../Engine/Plugins/Runtime/Oculus/OculusVR/Content/Materials/TouchForQuestRiftSControllerMaterial.uasset" 560
"../../../Engine/Plugins/Runtime/Oculus/OculusVR/Content/Materials/TouchForQuestRiftSControllerMaterial.uexp" 561
"../../../Engine/Plugins/Runtime/Oculus/OculusVR/Content/Meshes/LeftTouchForQuestRiftSController.uasset" 562
"../../../Engine/Plugins/Runtime/Oculus/OculusVR/Content/Meshes/LeftTouchForQuestRiftSController.uexp" 563
"../../../Engine/Plugins/Runtime/Oculus/OculusVR/Content/Meshes/RiftHMD.uasset" 564
"../../../Engine/Plugins/Runtime/Oculus/OculusVR/Content/Meshes/RiftHMD.uexp" 565
"../../../Engine/Plugins/Runtime/Oculus/OculusVR/Content/Meshes/RightTouchController.uasset" 566
"../../../Engine/Plugins/Runtime/Oculus/OculusVR/Content/Meshes/RightTouchController.uexp" 567
"../../../Engine/Plugins/Runtime/Oculus/OculusVR/Content/Meshes/RightTouchForQuestRiftSController.uasset" 568
"../../../Engine/Plugins/Runtime/Oculus/OculusVR/Content/Meshes/RightTouchForQuestRiftSController.uexp" 569
"D:/UnrealProjects/TenModul/Content/TopDownBP/Blueprints/WinWidget.uasset" 570
"D:/UnrealProjects/TenModul/Content/TopDownBP/Blueprints/WinWidget.uexp" 571
"D:/UnrealProjects/TenModul/Content/TopDownBP/Blueprints/Sound_05879.uasset" 572
"D:/UnrealProjects/TenModul/Content/TopDownBP/Blueprints/Sound_05879.uexp" 573
"D:/UnrealProjects/TenModul/Content/TopDownBP/WinSound.uasset" 574
"D:/UnrealProjects/TenModul/Content/TopDownBP/WinSound.uexp" 575
"D:/UnrealProjects/TenModul/Content/Puzzle/Meshes/BaseMaterial.uasset" 576
"D:/UnrealProjects/TenModul/Content/Puzzle/Meshes/BaseMaterial.uexp" 577
"D:/UnrealProjects/TenModul/Content/Puzzle/Meshes/OrangeMaterial.uasset" 578
"D:/UnrealProjects/TenModul/Content/Puzzle/Meshes/OrangeMaterial.uexp" 579
"D:/UnrealProjects/TenModul/Content/Geometry/Meshes/1M_Cube.uasset" 580
"D:/UnrealProjects/TenModul/Content/Geometry/Meshes/1M_Cube.uexp" 581
"D:/UnrealProjects/TenModul/Content/TopDownBP/Blueprints/BP_Blocks.uasset" 582
"D:/UnrealProjects/TenModul/Content/TopDownBP/Blueprints/BP_Blocks.uexp" 583
"D:/UnrealProjects/TenModul/Content/TopDownBP/Blueprints/HowManyBlocksLeft.uasset" 584
"D:/UnrealProjects/TenModul/Content/TopDownBP/Blueprints/HowManyBlocksLeft.uexp" 585
"../../../Engine/Content/MapTemplates/SM_Template_Map_Floor.uasset" 586
"../../../Engine/Content/MapTemplates/SM_Template_Map_Floor.uexp" 587
"../../../Engine/Content/EngineSky/T_Sky_Stars.uasset" 588
"../../../Engine/Content/EngineSky/T_Sky_Stars.uexp" 589
"../../../Engine/Content/EngineSky/T_Sky_Stars.ubulk" 590
"../../../Engine/Content/EngineSky/T_Sky_Clouds_M.uasset" 591
"../../../Engine/Content/EngineSky/T_Sky_Clouds_M.uexp" 592
"../../../Engine/Content/EngineSky/T_Sky_Clouds_M.ubulk" 593
"../../../Engine/Content/EngineSky/T_Sky_Blue.uasset" 594
"../../../Engine/Content/EngineSky/T_Sky_Blue.uexp" 595
"../../../Engine/Content/EngineSky/T_Sky_Blue.ubulk" 596
"../../../Engine/Content/EngineSky/M_Sky_Panning_Clouds2.uasset" 597
"../../../Engine/Content/EngineSky/M_Sky_Panning_Clouds2.uexp" 598
"../../../Engine/Content/EngineSky/SM_SkySphere.uasset" 599
"../../../Engine/Content/EngineSky/SM_SkySphere.uexp" 600
"../../../Engine/Content/EngineSky/C_Sky_Zenith_Color.uasset" 601
"../../../Engine/Content/EngineSky/C_Sky_Zenith_Color.uexp" 602
"../../../Engine/Content/EngineSky/C_Sky_Horizon_Color.uasset" 603
"../../../Engine/Content/EngineSky/C_Sky_Horizon_Color.uexp" 604
"../../../Engine/Content/EngineSky/C_Sky_Cloud_Color.uasset" 605
"../../../Engine/Content/EngineSky/C_Sky_Cloud_Color.uexp" 606
"../../../Engine/Content/EngineSky/BP_Sky_Sphere.uasset" 607
"../../../Engine/Content/EngineSky/BP_Sky_Sphere.uexp" 608
"D:/UnrealProjects/TenModul/Content/TopDownBP/Music.uasset" 609
"D:/UnrealProjects/TenModul/Content/TopDownBP/Music.uexp" 610
"D:/UnrealProjects/TenModul/Content/Puzzle/Meshes/BlueMaterial.uasset" 611
"D:/UnrealProjects/TenModul/Content/Puzzle/Meshes/BlueMaterial.uexp" 612
"D:/UnrealProjects/TenModul/Content/TopDownBP/Blueprints/GameMapStart.uexp" 613
"D:/UnrealProjects/TenModul/Content/TopDownBP/Blueprints/GameMapStart.umap" 614
"D:/UnrealProjects/TenModul/Content/TopDownBP/broken-wall-m88355.uasset" 615
"D:/UnrealProjects/TenModul/Content/TopDownBP/broken-wall-m88355.uexp" 616
"D:/UnrealProjects/TenModul/Content/TopDownBP/Blueprints/StartGame.uasset" 617
"D:/UnrealProjects/TenModul/Content/TopDownBP/Blueprints/StartGame.uexp" 618
"D:/UnrealProjects/TenModul/Content/TopDownBP/Blueprints/StartMenu.uexp" 619
"D:/UnrealProjects/TenModul/Content/TopDownBP/Blueprints/StartMenu.umap" 620
"../../../Engine/Content/Maps/Entry_BuiltData.uasset" 621
"../../../Engine/Content/Maps/Entry_BuiltData.uexp" 622
"../../../Engine/Content/Maps/Entry.uexp" 623
"../../../Engine/Content/Maps/Entry.umap" 624
